﻿{
  "Group": "ExternalAuth methods",
  "FriendlyName": "Google authentication",
  "SystemName": "ExternalAuth.Google",
  "Version": "1.80",
  "SupportedVersions": [ "4.60" ],
  "Author": "nopCommerce team",
  "DisplayOrder": 5,
  "FileName": "Nop.Plugin.ExternalAuth.Google.dll",
  "Description": "This plugin enables Google authentication (login using Google account)"
}